<?xml version="1.0" encoding="UTF-8" standalone="no"?>
<svg
   width="256"
   height="256"
   viewBox="0 0 256 256"
   fill="none"
   version="1.1"
   id="svg25"
   sodipodi:docname="garuda-logo-icon.svg"
   inkscape:version="1.1 (c4e8f9ed74, 2021-05-24)"
   xmlns:inkscape="http://www.inkscape.org/namespaces/inkscape"
   xmlns:sodipodi="http://sodipodi.sourceforge.net/DTD/sodipodi-0.dtd"
   xmlns:xlink="http://www.w3.org/1999/xlink"
   xmlns="http://www.w3.org/2000/svg"
   xmlns:svg="http://www.w3.org/2000/svg"
   xmlns:rdf="http://www.w3.org/1999/02/22-rdf-syntax-ns#"
   xmlns:cc="http://creativecommons.org/ns#"
   xmlns:dc="http://purl.org/dc/elements/1.1/">
  <metadata
     id="metadata29">
    <rdf:RDF>
      <cc:Work
         rdf:about="">
        <dc:format>image/svg+xml</dc:format>
        <dc:type
           rdf:resource="http://purl.org/dc/dcmitype/StillImage" />
      </cc:Work>
    </rdf:RDF>
  </metadata>
  <sodipodi:namedview
     pagecolor="#ffffff"
     bordercolor="#666666"
     borderopacity="1"
     objecttolerance="10"
     gridtolerance="10"
     guidetolerance="10"
     inkscape:pageopacity="0"
     inkscape:pageshadow="2"
     inkscape:window-width="3840"
     inkscape:window-height="2116"
     id="namedview27"
     showgrid="false"
     inkscape:snap-global="false"
     showguides="true"
     inkscape:guide-bbox="true"
     inkscape:zoom="1"
     inkscape:cx="129.5"
     inkscape:cy="138"
     inkscape:window-x="0"
     inkscape:window-y="0"
     inkscape:window-maximized="0"
     inkscape:current-layer="svg25"
     inkscape:document-rotation="0"
     inkscape:pagecheckerboard="1"
     inkscape:lockguides="true" />
  <defs
     id="defs23">
    <linearGradient
       inkscape:collect="always"
       id="linearGradient872">
      <stop
         style="stop-color:#13beff;stop-opacity:1"
         offset="0"
         id="stop868" />
      <stop
         style="stop-color:#dcacfd;stop-opacity:1"
         offset="0.42635185"
         id="stop17482" />
      <stop
         style="stop-color:#e484fd;stop-opacity:1"
         offset="0.47885826"
         id="stop13226" />
      <stop
         style="stop-color:#1ebafe;stop-opacity:1;"
         offset="0.96628952"
         id="stop17224" />
      <stop
         style="stop-color:#57d2ff;stop-opacity:1"
         offset="1"
         id="stop870" />
    </linearGradient>
    <linearGradient
       inkscape:collect="always"
       xlink:href="#linearGradient872"
       id="linearGradient874"
       x1="253.45299"
       y1="286.20071"
       x2="58.726749"
       y2="90.823097"
       gradientUnits="userSpaceOnUse"
       gradientTransform="matrix(1.0259811,0,0,1.0259811,-3.3255789,-3.3255778)" />
  </defs>
  <path
     id="path3047"
     style="opacity:1;fill:url(#linearGradient874);fill-opacity:1;stroke:none;stroke-width:1.3439px;stroke-linecap:butt;stroke-linejoin:miter;stroke-opacity:1"
     d="M 109.71493,36.335811 C 74.159272,71.670918 38.278661,107.88152 3.3071211,143.22719 28.245767,168.2261 54.108822,194.11746 79.356154,219.40884 l 77.973256,0.25535 65.82546,-65.6344 -142.91946,-0.12667 -15.846145,15.99428 119.616195,0.25543 -33.22662,33.22461 H 85.980802 L 25.871503,143.26806 116.68856,52.452939 h 65.29907 l 50.03389,50.022201 -77.94204,-0.0955 V 80.359166 l -5.92672,5.926699 v -0.01561 l -16.08009,16.082095 h 5.9267 v 0.007 l -5.9267,-0.007 -16.23608,16.25166 h 22.16278 v 0.037 h 16.08011 v -0.037 h 82.49821 v 21.83719 l 16.11519,-16.11519 -0.0351,-23.95248 c 0,0 -42.92436,-42.924402 -63.99675,-63.996759 z m 78.94611,0.04093 h 0.92214 l -0.93776,-0.01561 0.0156,0.01561 z"
     sodipodi:nodetypes="cccccccccccccccccccccccccccccccccccccc" />
</svg>
